<svg width="52" height="51" viewBox="0 0 52 51" fill="none" xmlns="http://www.w3.org/2000/svg">
    <path d="M12.0729 27.8202C12.3117 27.8202 12.5505 27.8202 12.7893 27.6964C13.028 27.5726 13.2668 27.4489 13.3862 27.3251C13.5056 27.2014 13.625 27.0776 13.7444 26.8301C13.8638 26.5826 13.8638 26.335 13.8638 26.0875C13.8638 25.4687 13.7444 25.0974 13.3862 24.8499C13.028 24.4786 12.6699 24.3549 12.0729 24.3549H11.1177V23.9836L12.7893 21.2608L13.3862 20.7658L12.6699 20.8895H10.282V19.8995H14.5802V20.2707L12.6699 23.241L12.1923 23.6123L12.6699 23.4885C13.028 23.4885 13.2668 23.6123 13.5056 23.6123C13.7444 23.7361 13.9832 23.8598 14.222 24.1073C14.4608 24.3549 14.5802 24.6024 14.6996 24.8499C14.819 25.2212 14.819 25.5925 14.819 25.9637C14.819 26.4588 14.6996 26.8301 14.5802 27.2014C14.4608 27.4489 14.3414 27.8202 13.9832 28.0677C13.7444 28.1914 13.5056 28.439 13.1474 28.5627C12.7893 28.6865 12.4311 28.6865 11.9535 28.6865C11.5953 28.6865 11.2371 28.6865 10.9983 28.5627C10.7595 28.5627 10.5208 28.5627 10.282 28.439L10.5208 27.5726C10.7595 27.6964 10.8789 27.6964 11.1177 27.8202C11.4759 27.8202 11.7147 27.8202 12.0729 27.8202Z" fill="#005487"/>
    <path d="M18.2814 27.8208C18.8784 27.8208 19.2366 27.6971 19.5948 27.3258C19.9529 27.0783 20.1917 26.5832 20.1917 25.9644C20.1917 25.3456 20.0723 24.8506 19.7142 24.603C19.2366 24.3555 18.759 24.108 18.162 24.108H17.2069V19.9001H20.9081V20.7665H18.0426V23.2417H18.5202C19.356 23.2417 19.9529 23.4892 20.4305 23.8605C20.9081 24.3555 21.1469 24.9743 21.1469 25.7169C21.1469 26.2119 21.0275 26.5832 20.9081 26.9545C20.7887 27.4496 20.5499 27.8208 20.3111 28.0684C20.0723 28.1921 19.7142 28.4396 19.356 28.5634C18.9978 28.6872 18.6396 28.6872 18.2814 28.6872C17.9232 28.6872 17.565 28.6872 17.3263 28.6872C17.0875 28.6872 16.8487 28.5634 16.6099 28.4396L16.8487 27.5733C17.0875 27.6971 17.3263 27.8208 17.4457 27.8208C17.6844 27.8208 17.9232 27.8208 18.2814 27.8208Z" fill="#005487"/>
    <path d="M22.8184 24.2311C22.8184 22.746 23.0572 21.6321 23.5348 20.8895C23.893 20.147 24.6093 19.7757 25.4451 19.7757C26.4003 19.7757 27.1166 20.147 27.5942 20.8895C28.0718 21.6321 28.1912 22.746 28.1912 24.2311C28.1912 25.7162 27.9524 26.8301 27.4748 27.5726C26.9972 28.3152 26.2809 28.6865 25.4451 28.6865C24.4899 28.6865 23.7736 28.3152 23.4154 27.4489C22.9378 26.8301 22.8184 25.7162 22.8184 24.2311ZM23.7736 24.2311C23.7736 24.7261 23.7736 25.2212 23.893 25.7162C24.0124 26.2113 24.0124 26.5825 24.2511 26.8301C24.3705 27.2014 24.6093 27.4489 24.8481 27.5726C25.0869 27.6964 25.3257 27.8202 25.6839 27.8202C26.2809 27.8202 26.7584 27.5726 26.9972 26.9538C27.236 26.335 27.4748 25.4687 27.4748 24.2311C27.4748 23.736 27.4748 23.241 27.3554 22.746C27.236 22.2509 27.236 21.8796 27.1166 21.6321C26.9972 21.2608 26.7584 21.0133 26.5196 20.8895C26.2809 20.7658 26.0421 20.642 25.6839 20.642C25.0869 20.642 24.6093 20.8895 24.3705 21.5083C23.893 22.1272 23.7736 22.9935 23.7736 24.2311Z" fill="#005487"/>
    <path d="M29.2657 24.2311C29.2657 22.746 29.5045 21.6321 29.9821 20.8895C30.4597 20.147 31.176 19.7757 32.0118 19.7757C32.967 19.7757 33.6833 20.147 34.1609 20.8895C34.6385 21.6321 34.7579 22.746 34.7579 24.2311C34.7579 25.7162 34.5191 26.8301 34.0415 27.5726C33.5639 28.3152 32.8476 28.6865 32.0118 28.6865C31.0566 28.6865 30.3403 28.3152 29.9821 27.4489C29.5045 26.8301 29.2657 25.7162 29.2657 24.2311ZM30.2209 24.2311C30.2209 24.7261 30.2209 25.2212 30.3403 25.7162C30.4597 26.2113 30.4597 26.5825 30.6985 26.8301C30.8179 27.2014 31.0566 27.4489 31.2954 27.5726C31.5342 27.6964 31.773 27.8202 32.1312 27.8202C32.7282 27.8202 33.2057 27.5726 33.4445 26.9538C33.6833 26.335 33.9221 25.4687 33.9221 24.2311C33.9221 23.736 33.9221 23.241 33.8027 22.746C33.6833 22.2509 33.6833 21.8796 33.5639 21.6321C33.4445 21.2608 33.2057 21.0133 32.967 20.8895C32.7282 20.7658 32.4894 20.642 32.1312 20.642C31.5342 20.642 31.0566 20.8895 30.8179 21.5083C30.3403 22.1272 30.2209 22.9935 30.2209 24.2311Z" fill="#005487"/>
    <path d="M35.8324 24.2311C35.8324 22.746 36.0712 21.6321 36.5488 20.8895C37.0264 20.147 37.7427 19.7757 38.5785 19.7757C39.5337 19.7757 40.25 20.147 40.7276 20.8895C41.2052 21.6321 41.3246 22.746 41.3246 24.2311C41.3246 25.7162 41.0858 26.8301 40.6082 27.5726C40.1306 28.3152 39.4143 28.6865 38.5785 28.6865C37.6234 28.6865 36.907 28.3152 36.5488 27.4489C35.9518 26.8301 35.8324 25.7162 35.8324 24.2311ZM36.7876 24.2311C36.7876 24.7261 36.7876 25.2212 36.907 25.7162C37.0264 26.2113 37.0264 26.5825 37.2652 26.8301C37.3846 27.2014 37.504 27.4489 37.7427 27.5726C37.9815 27.6964 38.2203 27.8202 38.5785 27.8202C39.1755 27.8202 39.6531 27.5726 39.8919 26.9538C40.1306 26.335 40.3694 25.4687 40.3694 24.2311C40.3694 23.736 40.3694 23.241 40.25 22.746C40.1306 22.2509 40.1306 21.8796 40.0112 21.6321C39.8919 21.2608 39.6531 21.0133 39.4143 20.8895C39.1755 20.7658 38.9367 20.642 38.5785 20.642C37.9815 20.642 37.504 20.8895 37.2652 21.5083C36.907 22.1272 36.7876 22.9935 36.7876 24.2311Z" fill="#005487"/>
    <path d="M30.4597 30.2954L30.8179 30.5429L28.43 36.1121L28.0718 35.8646L30.4597 30.2954Z" fill="#005487"/>
    <path d="M33.8027 33.1419V32.5231L33.5639 33.0181L32.7282 34.3795H32.4894L31.773 33.0181L31.5342 32.5231V33.1419V35.1221H31.0566V31.7805H31.5342L32.4894 33.2656L32.7282 33.6369L32.967 33.2656L33.8027 31.7805H34.2803V35.2458H33.8027V33.1419Z" fill="#005487"/>
    <path d="M37.2652 33.1419V32.7706L37.0264 33.2656L35.5936 35.2458H35.2355V31.7805H35.713V33.8845V34.2557L35.9518 33.8845L37.3846 31.7805H37.7427V35.2458H37.2652V33.1419Z" fill="#005487"/>
    <path d="M40.6082 33.6369H39.1755V35.1221H38.6979V31.7805H39.1755V33.1419H40.6082V31.7805H41.0858V35.2458H40.6082V33.6369Z" fill="#005487"/>
    <path d="M51.1721 25.3645C51.1721 39.0954 40.0085 50.229 26.2344 50.229C12.4604 50.229 1.29672 39.0954 1.29672 25.3645C1.29672 11.6336 12.4604 0.5 26.2344 0.5C40.0085 0.5 51.1721 11.6336 51.1721 25.3645Z" stroke="#1F4F85"/>
</svg>
