<svg width="52" height="51" viewBox="0 0 52 51" fill="none" xmlns="http://www.w3.org/2000/svg">
    <path d="M51.1721 25.3645C51.1721 39.0954 40.0085 50.229 26.2344 50.229C12.4604 50.229 1.29672 39.0954 1.29672 25.3645C1.29672 11.6336 12.4604 0.5 26.2344 0.5C40.0085 0.5 51.1721 11.6336 51.1721 25.3645Z" stroke="#1F4F85"/>
    <mask id="mask0" mask-type="alpha" maskUnits="userSpaceOnUse" x="0" y="0" width="52" height="51">
        <ellipse cx="26.2344" cy="25.3645" rx="25.4377" ry="25.3645" fill="white"/>
    </mask>
    <g mask="url(#mask0)">
        <path d="M32.8 9C32.7 9 32.6 9.1 32.5 9.2C32.4 9.4 32.4 9.6 32.6 9.8L33.5 10.5L33 11.2L32.1 10.5C32 10.4 31.9 10.4 31.8 10.4C31.7 10.4 31.6 10.5 31.5 10.6C31.4 10.8 31.4 11 31.6 11.2L32.5 11.9L32 12.6L31.1 11.9C31 11.8 30.9 11.8 30.8 11.8C30.7 11.8 30.6 11.9 30.5 12C30.4 12.2 30.4 12.4 30.6 12.6L31.5 13.3L31.1 13.8C30.9 13.8 30.8 14.1 30.8 14.4C30.8 14.7 31 14.9 31.2 15.1L31.7 15.5L22.6 27C22.4 27.3 22.1 27.4 21.7 27.4H21.6C21.5 27.4 21.4 27.4 21.2 27.4C21 27.4 20.8 27.4 20.6 27.4C16.8 27.8 12.8 32.6 12.1 33.5L12 33.6L11.8 33.5C11.6 33.3 11.3 33.2 11.1 33.2H11C10.7 33.2 10.4 33.4 10.2 33.6L8.4 36C8 36.5 8.1 37.3 8.6 37.7L8.8 37.8L-1.4 50.8C-2.6 52.3 -2.3 54.4 -0.8 55.6L2.8 58.5C3.4 59 4.2 59.2 4.9 59.2C5 59.2 5.2 59.2 5.3 59.2C6.2 59.1 7 58.6 7.6 57.9L21.1 40.8C22.9 38.6 26 33.5 25.1 30.2C25 29.8 25.1 29.5 25.3 29.2L37 14.3C38.1 12.9 37.8 11 36.5 9.9L35.8 9.3C35.6 9.2 35.4 9.1 35.2 9.1H35.1C34.8 9.1 34.6 9.3 34.4 9.5L34.1 9.8L33.2 9.1C33 9 32.9 9 32.8 9ZM21.7 28.2C21.8 28.2 21.9 28.2 21.9 28.2C22.4 28.1 22.9 27.9 23.2 27.5L32.8 15.3L31.8 14.4C31.7 14.4 31.7 14.3 31.7 14.2C31.7 14.1 31.7 14.1 31.8 14L32.2 13.5L32.6 13L33.1 12.3L33.6 11.6L34.1 11L34.6 10.3L34.9 10L35 9.9H35.1L35.8 10.5C36.8 11.3 37 12.7 36.2 13.7L24.6 28.7C24.2 29.2 24.1 29.8 24.3 30.4C25.1 33.5 21.8 38.5 20.5 40.2L6.9 57.4C6.5 57.9 5.9 58.3 5.2 58.4C5.1 58.4 5 58.4 4.9 58.4C4.3 58.4 3.8 58.2 3.3 57.8L-0.3 54.9C-1.4 54 -1.6 52.4 -0.7 51.3L9.5 38.3L9.8 38L10.1 37.7L12.4 34.8L12.7 34.5L13 34.2L13.1 34.1C15.1 31.6 18.3 28.6 21 28.3C21.2 28.3 21.058 28.3 21.258 28.3C21.358 28.3 21.3707 28.3105 21.4416 28.3C21.5486 28.2842 21.6 28.2 21.7 28.2ZM9.3 37.2L9.1 37.1C8.9 37 8.9 36.8 9 36.6L10.8 34.3C10.9 34.2 10.9 34.2 11 34.2C11.1 34.2 11.2 34.2 11.2 34.3L11.4 34.4L9.3 37.2ZM14.9 37.4C14.8 37.4 14.8 37.4 14.7 37.4C14.2 37.5 13.8 37.7 13.5 38.1C13.2 38.5 13.1 39 13.1 39.4C13.1 39.8 13.4 40.3 13.8 40.6C14.1 40.9 14.5 41 14.9 41C15 41 15 41 15.1 41C15.6 40.9 16 40.7 16.3 40.3C16.6 39.9 16.7 39.4 16.7 39C16.6 38.5 16.4 38.1 16 37.8C15.7 37.5 15.3 37.4 14.9 37.4ZM14.9 40.2C14.7 40.2 14.5 40.1 14.3 40C14.1 39.8 14 39.6 13.9 39.3C13.9 39 13.9 38.8 14.1 38.6C14.3 38.4 14.5 38.3 14.8 38.2H14.9C15.1 38.2 15.3 38.3 15.5 38.4C15.7 38.6 15.8 38.8 15.9 39.1C15.9 39.4 15.9 39.6 15.7 39.8C15.5 40 15.3 40.1 15 40.2H14.9ZM3.9 50.4C3.8 50.4 3.6 50.5 3.5 50.6C3.3 50.8 3.4 51.1 3.6 51.3L6.1 53.3C6.2 53.4 6.3 53.4 6.4 53.4C6.4 53.4 6.4 53.4 6.5 53.4C6.6 53.4 6.7 53.3 6.8 53.2C7 53 6.9 52.7 6.7 52.5L4.2 50.5C4.1 50.4 4 50.4 3.9 50.4Z" fill="#005487"/>
    </g>
</svg>
